<?xml version="1.0" encoding="UTF-8"?>
<!-- Created with Inkscape (http://www.inkscape.org/) -->
<svg width="44.279mm" height="17.858mm" version="1.1" viewBox="0 0 44.279377 17.857822" xmlns="http://www.w3.org/2000/svg" xmlns:cc="http://creativecommons.org/ns#" xmlns:dc="http://purl.org/dc/elements/1.1/" xmlns:rdf="http://www.w3.org/1999/02/22-rdf-syntax-ns#">
 <defs>
  <clipPath id="clipPath5275">
   <path d="m814.08 471.6h125.52v50.64h-125.52z" clip-rule="evenodd"/>
  </clipPath>
  <clipPath id="clipPath5285">
   <path d="m0 0h252.7v102.2h-252.7z"/>
  </clipPath>
  <clipPath id="clipPath5299">
   <path d="m0 102.2v-102.84h253.32v102.84" clip-rule="evenodd"/>
  </clipPath>
  <clipPath id="clipPath5309">
   <path d="m0 102.2v-102.84h253.32v102.84" clip-rule="evenodd"/>
  </clipPath>
  <clipPath id="clipPath5319">
   <path d="m0 102.2v-102.84h253.32v102.84" clip-rule="evenodd"/>
  </clipPath>
  <clipPath id="clipPath5329">
   <path d="m0 102.2v-102.84h253.32v102.84" clip-rule="evenodd"/>
  </clipPath>
  <clipPath id="clipPath5339">
   <path d="m0 102.2v-102.84h253.32v102.84" clip-rule="evenodd"/>
  </clipPath>
  <clipPath id="clipPath5349">
   <path d="m0 102.2v-102.84h253.32v102.84" clip-rule="evenodd"/>
  </clipPath>
  <clipPath id="clipPath5359">
   <path d="m0 102.2v-102.84h253.32v102.84" clip-rule="evenodd"/>
  </clipPath>
  <clipPath id="clipPath5369">
   <path d="m0 102.2v-102.84h253.32v102.84" clip-rule="evenodd"/>
  </clipPath>
  <clipPath id="clipPath5379">
   <path d="m0 102.2v-102.84h253.32v102.84" clip-rule="evenodd"/>
  </clipPath>
  <clipPath id="clipPath5389">
   <path d="m0 102.2v-102.84h253.32v102.84" clip-rule="evenodd"/>
  </clipPath>
  <clipPath id="clipPath5399">
   <path d="m0 102.2v-102.84h253.32v102.84" clip-rule="evenodd"/>
  </clipPath>
  <clipPath id="clipPath5409">
   <path d="m0 102.2v-102.84h253.32v102.84" clip-rule="evenodd"/>
  </clipPath>
  <clipPath id="clipPath5419">
   <path d="m0 102.2v-102.84h253.32v102.84" clip-rule="evenodd"/>
  </clipPath>
 </defs>
 <metadata>
  <rdf:RDF>
   <cc:Work rdf:about="">
    <dc:format>image/svg+xml</dc:format>
    <dc:type rdf:resource="http://purl.org/dc/dcmitype/StillImage"/>
    <dc:title/>
   </cc:Work>
  </rdf:RDF>
 </metadata>
 <g transform="translate(13.068 -59.018)">
  <g transform="matrix(.35278 0 0 -.35278 -300.26 243.25)">
   <g clip-path="url(#clipPath5275)">
    <g transform="matrix(1.7433 0 0 .70333 814.08 471.6)">
     <g transform="scale(.28492 .70449)">
      <g clip-path="url(#clipPath5285)">
       <g clip-path="url(#clipPath5299)">
        <path d="m142.9 44.294v15.527h-5.4v-2.251h-0.08c-0.97 1.801-2.55 2.776-4.57 2.776-4.8 0-7.5-3.976-7.5-8.701 0-4.951 2.32-8.777 7.5-8.777 1.8 0 3.52 0.975 4.57 2.626h0.08v-1.726c0-2.175-0.3-4.125-2.93-4.125-0.9 0-1.57 0.15-2.1 0.375-0.52 0.3-0.82 0.75-0.9 1.575h-5.62c0.67-4.726 4.42-5.701 8.4-5.701 8.03 0 8.55 5.476 8.55 8.402zm-5.33 7.126c0-2.176-1.05-4.126-3.37-4.126-2.33 0-3.23 2.1-3.23 4.201 0 2.175 0.75 4.425 3.23 4.425 2.55 0 3.37-2.25 3.37-4.5zm-19.87-9.302h5.62v11.327c0 2.55-0.45 6.901-6.22 6.901-2.03 0-4.35-1.125-5.33-2.926h-0.08v2.401h-5.47v-17.703h5.62v9.677c0 1.95 0.91 3.75 3.08 3.75 3 0 2.78-2.475 2.78-4.876zm-14.78 24.304h-6.078v-5.026h6.078zm-11.554-18.978h3.001v4.876h-3.001v13.577h-5.401l-10.277-13.052v-5.401h10.052v-5.326h5.626zm-5.476 4.876h-5.851l5.851 7.651zm-18.303-10.202h6.151v17.703h-6.151zm0 19.278h6.151v5.026h-6.151zm-2.7-6.976c0 2.025-0.301 3.826-0.901 5.401h-7.426c1.425-1.05 2.175-2.851 2.175-5.401 0-4.876-1.8-6.751-6.451-6.826h-2.925v12.227h-6.151v-17.703h10.126c7.202 0 11.553 4.276 11.553 12.302zm-21.679 6.976h20.028c-1.875 3.226-5.326 5.026-9.902 5.026h-10.126zm-19.279 0h17.328v5.026h-17.328zm-9.977-19.278h6.302v17.703h-5.776v-8.326h-0.075l-4.5012 8.326h-9.9018v-17.703h5.701v15.152h0.075zm0.526 19.278h5.776v5.026h-5.776zm-14.478 0h9.0016l-2.7755 5.026h-6.2261zm30.08-1.575h-6.151v-17.703h6.151v9.377h9.677v4.875h-9.677zm66.762-17.703h6.078v17.703h-6.078zm0 17.703z"/>
       </g>
       <g clip-path="url(#clipPath5309)">
        <path d="m180.48 78.499c0.6 1.2 0.98 2.55 0.98 3.975 0 4.651-3.68 8.476-8.25 8.476-4.58 0-8.26-3.825-8.26-8.476 0-4.726 3.68-8.551 8.26-8.551 2.62 0 5.02 1.275 6.52 3.3l57.31-34.205c0.15 0.525 0.38 0.976 0.68 1.351z" fill="#f8a60d"/>
       </g>
       <g clip-path="url(#clipPath5319)">
        <path d="m206.21 8.5133c0-4.7257 3.68-8.4762 8.25-8.4762 4.5 0 8.25 3.7505 8.25 8.4762s-3.75 8.5517-8.25 8.5517c-1.42 0-2.7-0.375-3.82-0.976l-33.01 59.184c-0.37-0.3-0.82-0.525-1.27-0.675l33.08-59.334c-1.95-1.5-3.23-3.975-3.23-6.7507z" fill="#70208f"/>
       </g>
       <g clip-path="url(#clipPath5329)">
        <path d="m252.87 39.793c0 4.726-3.68 8.476-8.25 8.476-4.43 0-7.95-3.525-8.25-8.026h-66.01c0-0.15 0.07-0.3 0.07-0.525 0-0.3-0.07-0.6-0.07-0.975h66.08c0.45-4.201 3.98-7.501 8.18-7.501 4.57 0 8.25 3.825 8.25 8.551z" fill="#ec1c24"/>
       </g>
       <g clip-path="url(#clipPath5339)">
        <path d="m226.17 78.799l-57.24-34.205c-1.5 2.25-3.98 3.675-6.75 3.675-4.58 0-8.25-3.825-8.25-8.551s3.67-8.551 8.25-8.551c4.5 0 8.25 3.825 8.25 8.551 0 1.275-0.3 2.475-0.75 3.6l57.24 34.13c-0.3 0.45-0.6 0.901-0.75 1.351z" fill="#fef100"/>
       </g>
       <g clip-path="url(#clipPath5349)">
        <path d="m236.37 63.196h-66.01c-0.23 4.426-3.83 7.951-8.18 7.951-4.58 0-8.25-3.825-8.25-8.476 0-4.725 3.67-8.551 8.25-8.551 4.2 0 7.73 3.3 8.18 7.501l66.08 0.075c-0.07 0.3-0.07 0.6-0.07 0.975v0.525z" fill="#8dbee8"/>
       </g>
       <g clip-path="url(#clipPath5359)">
        <path d="m225.87 23.29c-0.3-0.975-0.53-1.95-0.53-3.075 0-4.726 3.68-8.551 8.25-8.551 4.58 0 8.25 3.825 8.25 8.551s-3.67 8.551-8.25 8.551c-3 0-5.62-1.65-7.05-4.125l-57.08 34.055c-0.23-0.45-0.45-0.825-0.75-1.276z" fill="#f26717"/>
       </g>
       <g clip-path="url(#clipPath5369)">
        <path d="m200.59 93.876c0 4.726-3.68 8.474-8.26 8.474-4.57 0-8.25-3.748-8.25-8.474s3.68-8.551 8.25-8.551c1.13 0 2.18 0.225 3.15 0.675l33.01-59.109c0.38 0.3 0.75 0.6 1.2 0.825l-32.93 58.959c2.33 1.5 3.83 4.2 3.83 7.201z" fill="#eb0a67"/>
       </g>
       <g clip-path="url(#clipPath5379)">
        <path d="m184.08 8.5133c0-4.7257 3.68-8.4762 8.25-8.4762 4.58 0 8.26 3.7505 8.26 8.4762 0 4.5757-3.45 8.2517-7.81 8.5517v68.26h-0.45c-0.37 0-0.67 0-0.97 0.075v-68.41c-4.13-0.526-7.28-4.051-7.28-8.4767z" fill="#176fc0"/>
       </g>
       <g clip-path="url(#clipPath5389)">
        <path d="m222.71 93.876c0 4.726-3.75 8.474-8.25 8.474-4.57 0-8.25-3.748-8.25-8.474 0-4.351 3.15-7.951 7.2-8.476v-68.41c0.38 0.075 0.68 0.075 1.05 0.075h0.45v68.26c4.35 0.3 7.8 3.975 7.8 8.551z" fill="#ac252b"/>
       </g>
       <g clip-path="url(#clipPath5399)">
        <path d="m241.84 82.399c0 4.726-3.67 8.551-8.25 8.551-4.57 0-8.25-3.825-8.25-8.551 0-2.85 1.35-5.326 3.38-6.901l-33.01-59.184c0.45-0.225 0.82-0.45 1.28-0.75l33 59.184c1.13-0.525 2.33-0.825 3.6-0.825 4.58 0 8.25 3.825 8.25 8.476z" fill="#137e48"/>
       </g>
       <g clip-path="url(#clipPath5409)">
        <path d="m209.59 86.975l-33.01-59.259c-1.05 0.525-2.17 0.75-3.37 0.75-4.58 0-8.26-3.825-8.26-8.476 0-4.726 3.68-8.551 8.26-8.551 4.57 0 8.25 3.825 8.25 8.551 0 2.925-1.43 5.476-3.6 7.051l33 59.184c-0.45 0.225-0.82 0.45-1.27 0.75z" fill="#7fcb28"/>
       </g>
       <g clip-path="url(#clipPath5419)">
        <path d="m252.87 62.671c0 4.651-3.68 8.476-8.25 8.476-4.58 0-8.25-3.825-8.25-8.476 0-1.35 0.3-2.55 0.82-3.675l-57.23-34.205c0.3-0.375 0.52-0.825 0.75-1.275l57.23 34.205c1.5-2.176 3.9-3.601 6.68-3.601 4.57 0 8.25 3.826 8.25 8.551z" fill="#2e3191"/>
       </g>
      </g>
     </g>
    </g>
   </g>
  </g>
 </g>
</svg>
